%YAML 1.1
%TAG !u! tag:unity3d.com,2011:
--- !u!21 &2100000
Material:
  serializedVersion: 6
  m_ObjectHideFlags: 0
  m_CorrespondingSourceObject: {fileID: 0}
  m_PrefabInstance: {fileID: 0}
  m_PrefabAsset: {fileID: 0}
  m_Name: RadialUVDistortion
  m_Shader: {fileID: 4800000, guid: 75ae90a54347bf9438a14818bf4f5f09, type: 3}
  m_ShaderKeywords: _TOGGLESWITCH0_ON
  m_LightmapFlags: 1
  m_EnableInstancingVariants: 0
  m_DoubleSidedGI: 0
  m_CustomRenderQueue: -1
  stringTagMap: {}
  disabledShaderPasses: []
  m_SavedProperties:
    serializedVersion: 3
    m_TexEnvs:
    - <noninit>:
        m_Texture: {fileID: 0}
        m_Scale: {x: 1, y: 1}
        m_Offset: {x: 0, y: 0}
    - _BaseTexture:
        m_Texture: {fileID: 2800000, guid: 5a5b20f962bdb22428da08e032649287, type: 3}
        m_Scale: {x: 1, y: 1}
        m_Offset: {x: 0, y: 0}
    - _NoiseMap:
        m_Texture: {fileID: 2800000, guid: 61c0b9c0523734e0e91bc6043c72a490, type: 3}
        m_Scale: {x: 1, y: 1}
        m_Offset: {x: 0, y: 0}
    - _texcoord:
        m_Texture: {fileID: 0}
        m_Scale: {x: 1, y: 1}
        m_Offset: {x: 0, y: 0}
    m_Floats:
    - <noninit>: 0
    - _NoiseMapStrength: 0.132
    - __dirty: 0
    m_Colors:
    - <noninit>: {r: 0, g: 1.849924e-33, b: 0, a: 1.8499122e-33}
    - _NoiseMapPannerSpeed: {r: 1.61, g: -0.43, b: 0, a: 0}
    - _NoiseMapSize: {r: 1, g: 1, b: 0, a: 0}
    - _RingPannerSpeed: {r: 0.1, g: -1.27, b: 0, a: 0}
    - _Tint: {r: 1, g: 0.68235296, b: 0, a: 0}
